<svg width="236" height="64" viewBox="0 0 236 64" fill="none" xmlns="http://www.w3.org/2000/svg">
<path d="M0 63.9405L101.268 5.59639C101.268 5.59639 109.77 0 116.701 0C124.541 0 133.729 5.59639 133.729 5.59639L235.055 63.9405V199.485L205.664 216.436V80.9735L130.251 37.4331C130.251 37.4331 123.622 33.1604 117.457 33.1604C111.293 33.1604 104.664 37.4331 104.664 37.4331L29.4254 80.9735V216.436L0 199.485V63.9405Z" fill="#FFDD00"/>
</svg>
