[
    {
        "id":1,
        "images" : "/images/sejarah/master_logo_btn_properti.png",
        "tahun" : "Februari 2015",
        "title" : "Launching BTN Properti",
        "content" : "Nulla magna laboris labore amet non amet elit laborum in nostrud mollit. Ea id officia in laborum non. Commodo aliqua reprehenderit fugiat veniam dolore reprehenderit tempor do. Veniam veniam incididunt ut irure laboris ut adipisicing anim ullamco magna. Ipsum exercitation tempor laboris ullamco pariatur magna sit minim cupidatat ea sunt dolor."
    },
    {
        "id":2,
        "images" : "/images/sejarah/1.png",
        "tahun" : "Februari 2020",
        "title" : "Launching BTN Properti",
        "content" : "Amet occaecat in qui cupidatat non ex dolore aute ea nulla velit in cupidatat. Incididunt tempor eiusmod sit mollit nulla consequat excepteur nostrud anim eiusmod ut esse mollit. Sint sit enim duis proident. Tempor non consectetur esse ea irure aliqua labore. Non ipsum non est nisi dolore anim consectetur. Enim pariatur do non ex quis fugiat laborum velit eu voluptate Lorem. Quis minim elit aliquip nulla incididunt est eu laborum veniam velit."
    },
    {
        "id":3,
        "images" : "/images/sejarah/master_logo_btn_properti.png",
        "tahun" : "Februari 2021",
        "title" : "Launching BTN Properti",
        "content" : "Esse aliqua amet sint anim ad ut do. Ipsum in est eu mollit exercitation ut sint irure nisi ullamco. Proident nisi nostrud dolor excepteur duis."
    },
    {
        "id":4,
        "images" : "/images/sejarah/master_logo_btn_properti.png",
        "tahun" : "Februari 2022",
        "title" : "Launching BTN Properti",
        "content" : "Sint velit consequat minim eu aute exercitation. Ea non cupidatat in est officia culpa labore non occaecat laborum ad veniam tempor. Tempor officia culpa duis duis cillum exercitation irure adipisicing. Ut elit non et laboris officia id voluptate veniam irure reprehenderit do. Officia pariatur duis nulla qui aliqua elit enim tempor tempor mollit commodo. Ex quis quis officia occaecat in incididunt nisi sint consequat. Et laboris nisi est consectetur ad tempor ipsum quis in laboris aute reprehenderit dolor."
    }
]