[
    {
        "id":1,
        "images" : "/images/properti/1.png",
        "kategori" : "rumah",
        "lokasi" : "Bogor",
        "title" : "Andalusia Residence",
        "price" : "400000000",
        "like" : 1,
        "me" : 0,
        "cicilan" : "Rp 10jt/Bln",
        "suku_bunga" : "8.29",
        "developer_avatar" : "/images/mitra/10.png",
        "developer_name" : "PT Duta Pertiwi Tbk",
        "kamar_tidur" : 2,
        "kamar_mandi" : 1,
        "lb" : "100",
        "lt" : "200",
        "cluster": "Cluster/Tower",
        "blok" : "Blok K/121",
        "alamat" : "Jln senayan blok k 121",
        "listrik" : "1.500 watt",
        "pdam" : "ada",
        "telp" : "ada",
        "sertifikat" : "SHGB",
        "status_properti" : "Non Subsidi"
    },
    {
        "id":2,
        "images" : "/images/properti/2.png",
        "kategori" : "apartemen",
        "lokasi" : "Jakarta",
        "title" : "Lloyd Apartment",
        "price" : "60000000",
        "like" : 0,
        "me":1,
        "cicilan" : "Rp 10jt/Bln",
        "suku_bunga" : "8.29",
        "developer_avatar" : "/images/mitra/1.png",
        "developer_name" : "PT Duta Pertiwi Tbk",
        "kamar_tidur" : 2,
        "kamar_mandi" : 1,
        "lb" : "110",
        "lt" : "210",
        "cluster": "Cluster/Tower",
        "blok" : "Blok K/122",
        "alamat" : "Jln senayan blok k 122",
        "listrik" : "2.500 watt",
        "pdam" : "ada",
        "telp" : "ada",
        "sertifikat" : "SHGB",
        "status_properti" : "Non Subsidi"
    },
    {
        "id":3,
        "images" : "/images/properti/3.png",
        "kategori" : "kantor",
        "lokasi" : "Bogor",
        "title" : "Cinere Bellevue Suites",
        "price" : "78000000",
        "like" : 0,
        "me":1,
        "cicilan" : "Rp 10jt/Bln",
        "suku_bunga" : "8.29",
        "developer_avatar" : "/images/mitra/2.png",
        "developer_name" : "PT Duta Pertiwi Tbk",
        "kamar_tidur" : 2,
        "kamar_mandi" : 1,
        "lb" : "120",
        "lt" : "220",
        "cluster": "Cluster/Tower",
        "blok" : "Blok K/120",
        "alamat" : "Jln senayan blok k 120",
        "listrik" : "3.500 watt",
        "pdam" : "ada",
        "telp" : "ada",
        "sertifikat" : "SHGB",
        "status_properti" : "Non Subsidi"
    }
    
]