<svg width="24" height="24" viewBox="0 0 24 24" fill="none" xmlns="http://www.w3.org/2000/svg">
<mask id="path-1-outside-1_1686_1602" maskUnits="userSpaceOnUse" x="0" y="0" width="25" height="24" fill="black">
<rect fill="white" width="25" height="24"/>
<path fill-rule="evenodd" clip-rule="evenodd" d="M2.30084 1.22319C2.00326 0.925602 1.52078 0.925602 1.22319 1.22319C0.925604 1.52079 0.925603 2.00328 1.22319 2.30087L10.9226 12.0006L1.2243 21.6991C0.926715 21.9967 0.926716 22.4792 1.2243 22.7768C1.52189 23.0744 2.00437 23.0744 2.30196 22.7768L12.0003 13.0782L21.6986 22.7768C21.9962 23.0744 22.4787 23.0744 22.7763 22.7768C23.0739 22.4792 23.0739 21.9967 22.7763 21.6991L13.078 12.0006L22.7774 2.30087C23.075 2.00328 23.075 1.52079 22.7774 1.22319C22.4798 0.925602 21.9973 0.925602 21.6998 1.22319L12.0003 10.9229L2.30084 1.22319Z"/>
</mask>
<path fill-rule="evenodd" clip-rule="evenodd" d="M2.30084 1.22319C2.00326 0.925602 1.52078 0.925602 1.22319 1.22319C0.925604 1.52079 0.925603 2.00328 1.22319 2.30087L10.9226 12.0006L1.2243 21.6991C0.926715 21.9967 0.926716 22.4792 1.2243 22.7768C1.52189 23.0744 2.00437 23.0744 2.30196 22.7768L12.0003 13.0782L21.6986 22.7768C21.9962 23.0744 22.4787 23.0744 22.7763 22.7768C23.0739 22.4792 23.0739 21.9967 22.7763 21.6991L13.078 12.0006L22.7774 2.30087C23.075 2.00328 23.075 1.52079 22.7774 1.22319C22.4798 0.925602 21.9973 0.925602 21.6998 1.22319L12.0003 10.9229L2.30084 1.22319Z" fill="white"/>
<path d="M1.22319 1.22319L0.516075 0.516096L0.516075 0.516096L1.22319 1.22319ZM2.30084 1.22319L3.00796 0.516096V0.516096L2.30084 1.22319ZM1.22319 2.30087L1.9303 1.59378L1.9303 1.59378L1.22319 2.30087ZM10.9226 12.0006L11.6298 12.7077L12.3368 12.0006L11.6298 11.2935L10.9226 12.0006ZM1.2243 21.6991L1.93142 22.4062L1.93142 22.4062L1.2243 21.6991ZM1.2243 22.7768L1.93142 22.0697L1.93142 22.0697L1.2243 22.7768ZM2.30196 22.7768L1.59484 22.0697H1.59484L2.30196 22.7768ZM12.0003 13.0782L12.7074 12.3711L12.0003 11.664L11.2932 12.3711L12.0003 13.0782ZM21.6986 22.7768L22.4058 22.0697L21.6986 22.7768ZM22.7763 22.7768L22.0692 22.0697L22.0692 22.0697L22.7763 22.7768ZM22.7763 21.6991L22.0692 22.4062L22.0692 22.4062L22.7763 21.6991ZM13.078 12.0006L12.3708 11.2935L11.6638 12.0006L12.3708 12.7077L13.078 12.0006ZM22.7774 2.30087L22.0703 1.59378V1.59378L22.7774 2.30087ZM22.7774 1.22319L23.4845 0.516096L22.7774 1.22319ZM21.6998 1.22319L20.9926 0.516096V0.516096L21.6998 1.22319ZM12.0003 10.9229L11.2932 11.63L12.0003 12.3371L12.7074 11.63L12.0003 10.9229ZM1.9303 1.93029C1.83737 2.02324 1.68667 2.02324 1.59373 1.93029L3.00796 0.516096C2.31985 -0.172032 1.20419 -0.172032 0.516075 0.516096L1.9303 1.93029ZM1.9303 1.59378C2.02323 1.68671 2.02323 1.83737 1.9303 1.93029L0.516075 0.516096C-0.172024 1.20421 -0.172026 2.31986 0.516074 3.00797L1.9303 1.59378ZM11.6298 11.2935L1.9303 1.59378L0.516074 3.00797L10.2155 12.7077L11.6298 11.2935ZM10.2155 11.2935L0.517186 20.992L1.93142 22.4062L11.6298 12.7077L10.2155 11.2935ZM0.517188 20.992C-0.170914 21.6801 -0.170912 22.7958 0.517188 23.4839L1.93142 22.0697C2.02434 22.1626 2.02434 22.3133 1.93142 22.4062L0.517188 20.992ZM0.517186 23.4839C1.2053 24.172 2.32096 24.172 3.00907 23.4839L1.59484 22.0697C1.68778 21.9768 1.83848 21.9768 1.93142 22.0697L0.517186 23.4839ZM3.00907 23.4839L12.7074 13.7853L11.2932 12.3711L1.59484 22.0697L3.00907 23.4839ZM22.4058 22.0697L12.7074 12.3711L11.2932 13.7853L20.9915 23.4839L22.4058 22.0697ZM22.0692 22.0697C22.1621 21.9768 22.3128 21.9768 22.4058 22.0697L20.9915 23.4839C21.6796 24.172 22.7953 24.172 23.4834 23.4839L22.0692 22.0697ZM22.0692 22.4062C21.9763 22.3133 21.9763 22.1626 22.0692 22.0697L23.4834 23.4839C24.1715 22.7958 24.1715 21.6801 23.4834 20.992L22.0692 22.4062ZM12.3708 12.7077L22.0692 22.4062L23.4834 20.992L13.7851 11.2935L12.3708 12.7077ZM13.7851 12.7077L23.4845 3.00797L22.0703 1.59378L12.3708 11.2935L13.7851 12.7077ZM23.4845 3.00797C24.1726 2.31986 24.1726 1.20421 23.4845 0.516096L22.0703 1.93029C21.9774 1.83736 21.9774 1.68671 22.0703 1.59378L23.4845 3.00797ZM23.4845 0.516096C22.7964 -0.172032 21.6808 -0.172032 20.9926 0.516096L22.4069 1.93029C22.3139 2.02324 22.1632 2.02324 22.0703 1.93029L23.4845 0.516096ZM20.9926 0.516096L11.2932 10.2158L12.7074 11.63L22.4069 1.93029L20.9926 0.516096ZM1.59373 1.93029L11.2932 11.63L12.7074 10.2158L3.00796 0.516096L1.59373 1.93029Z" fill="white" mask="url(#path-1-outside-1_1686_1602)"/>
</svg>
