<svg width="36" height="36" viewBox="0 0 36 36" fill="none" xmlns="http://www.w3.org/2000/svg">
<path d="M28.5 20.9993V26.9993H25.5V20.9993H28.5ZM10.5 20.9993V26.9993H9C8.175 26.9993 7.5 26.3243 7.5 25.4993V20.9993H10.5ZM18 1.49927C10.545 1.49927 4.5 7.54427 4.5 14.9993V25.4993C4.5 27.9893 6.51 29.9993 9 29.9993H13.5V17.9993H7.5V14.9993C7.5 9.19427 12.195 4.49927 18 4.49927C23.805 4.49927 28.5 9.19427 28.5 14.9993V17.9993H22.5V29.9993H28.5V31.4993H18V34.4993H27C29.49 34.4993 31.5 32.4893 31.5 29.9993V14.9993C31.5 7.54427 25.455 1.49927 18 1.49927Z" fill="#0061A7"/>
</svg>
