<svg width="48" height="48" viewBox="0 0 48 48" fill="none" xmlns="http://www.w3.org/2000/svg">
<circle opacity="0.25" cx="24" cy="24" r="24" fill="#EDF4FF"/>
<g opacity="0.75">
<path d="M24 37.307L22.115 35.5905C15.42 29.5175 11 25.5122 11 20.5966C11 16.5913 14.146 13.4443 18.15 13.4443C20.412 13.4443 22.583 14.4977 24 16.1622C25.417 14.4977 27.588 13.4443 29.85 13.4443C33.854 13.4443 37 16.5913 37 20.5966C37 25.5122 32.58 29.5175 25.885 35.6035L24 37.307Z" fill="white"/>
</g>
</svg>
