<svg width="48" height="48" viewBox="0 0 48 48" fill="none" xmlns="http://www.w3.org/2000/svg">
<circle opacity="0.25" cx="24" cy="24" r="24" fill="#EDF4FF"/>
<g opacity="0.75">
<path d="M30.6666 35.6028L32.5466 33.7222L28 29.174L26.12 31.0546L30.6666 35.6028ZM18 19.0508H22.6666V26.5065L15.4533 33.7222L17.3333 35.6028L25.3333 27.6002V19.0508H30L24 13.0488L18 19.0508Z" fill="white"/>
</g>
</svg>
