<svg width="48" height="48" viewBox="0 0 48 48" fill="none" xmlns="http://www.w3.org/2000/svg">
<rect width="48" height="48" rx="8" transform="matrix(-1 0 0 1 48 0)" fill="#AAAAAA"/>
<path d="M18.08 23.6202C18.1276 23.4974 18.199 23.3853 18.29 23.2902L23.29 18.2902C23.3832 18.1969 23.4939 18.123 23.6158 18.0725C23.7376 18.0221 23.8681 17.9961 24 17.9961C24.2663 17.9961 24.5217 18.1019 24.71 18.2902C24.8032 18.3834 24.8772 18.4941 24.9277 18.6159C24.9781 18.7378 25.0041 18.8683 25.0041 19.0002C25.0041 19.2665 24.8983 19.5219 24.71 19.7102L21.41 23.0002H29C29.2652 23.0002 29.5196 23.1055 29.7071 23.2931C29.8946 23.4806 30 23.735 30 24.0002C30 24.2654 29.8946 24.5198 29.7071 24.7073C29.5196 24.8948 29.2652 25.0002 29 25.0002H21.41L24.71 28.2902C24.8037 28.3831 24.8781 28.4937 24.9289 28.6156C24.9797 28.7375 25.0058 28.8682 25.0058 29.0002C25.0058 29.1322 24.9797 29.2629 24.9289 29.3848C24.8781 29.5066 24.8037 29.6172 24.71 29.7102C24.617 29.8039 24.5064 29.8783 24.3846 29.9291C24.2627 29.9798 24.132 30.006 24 30.006C23.868 30.006 23.7373 29.9798 23.6154 29.9291C23.4936 29.8783 23.383 29.8039 23.29 29.7102L18.29 24.7102C18.199 24.6151 18.1276 24.5029 18.08 24.3802C17.98 24.1367 17.98 23.8636 18.08 23.6202Z" fill="white"/>
</svg>
