<svg width="40" height="40" viewBox="0 0 40 40" fill="none" xmlns="http://www.w3.org/2000/svg">
<g filter="url(#filter0_d_566_11439)">
<rect x="4" width="32" height="32" rx="4" fill="white"/>
<rect x="4.5" y="0.5" width="31" height="31" rx="3.5" stroke="#EEEEEE"/>
</g>
<path d="M22.0001 10H16.0001C15.4467 10 14.9734 10.3333 14.7734 10.8133L12.7601 15.5133C12.7001 15.6667 12.6667 15.8267 12.6667 16V17.3333C12.6667 18.0667 13.2667 18.6667 14.0001 18.6667H18.2067L17.5734 21.7133L17.5534 21.9267C17.5534 22.2 17.6667 22.4533 17.8467 22.6333L18.5534 23.3333L22.9467 18.94C23.1867 18.7 23.3334 18.3667 23.3334 18V11.3333C23.3334 10.6 22.7334 10 22.0001 10ZM24.6667 10V18H27.3334V10H24.6667Z" fill="#0061A7"/>
<defs>
<filter id="filter0_d_566_11439" x="0" y="0" width="40" height="40" filterUnits="userSpaceOnUse" color-interpolation-filters="sRGB">
<feFlood flood-opacity="0" result="BackgroundImageFix"/>
<feColorMatrix in="SourceAlpha" type="matrix" values="0 0 0 0 0 0 0 0 0 0 0 0 0 0 0 0 0 0 127 0" result="hardAlpha"/>
<feOffset dy="4"/>
<feGaussianBlur stdDeviation="2"/>
<feColorMatrix type="matrix" values="0 0 0 0 0 0 0 0 0 0.0974463 0 0 0 0 0.241667 0 0 0 0.1 0"/>
<feBlend mode="normal" in2="BackgroundImageFix" result="effect1_dropShadow_566_11439"/>
<feBlend mode="normal" in="SourceGraphic" in2="effect1_dropShadow_566_11439" result="shape"/>
</filter>
</defs>
</svg>
